module gitlab.com/fforster/hugolint

go 1.22.0

require (
	github.com/google/go-cmp v0.6.0
	github.com/spf13/cobra v1.8.0
	github.com/yuin/goldmark v1.7.0
)

require (
	github.com/inconshreveable/mousetrap v1.1.0 // indirect
	github.com/spf13/pflag v1.0.5 // indirect
)
